{
  "blueprintId": "ecbae502-0e0e-4909-9b79-b36c51d1b8b5",
  "timestamp": 1504714763962,
  "cost": 0,
  "callbackEndpoint": "http:\/\/10.220.129.58:8080\/sde\/optimize\/ecbae502-0e0e-4909-9b79-b36c51d1b8b5",
  "serviceElements": [
    {
      "serviceElementId": "RayTracingEngine",
      "implementations": [
        {
          "implementationType": "MIC_CONTAINER",
          "requiredResourceUnit": 1,
          "computationRange": [
            1,
            1
          ],
          "memoryRange": [
            100,
            1000
          ],
          "storageRange": [
            5,
            50
          ],
          "bandwidthRange": [
            100,
            1000
          ],
          "acceleratorRange": [

          ],
          "toscaid": "cloudlightning.nodes.PhiRayTracingEngine:0.1.0-SNAPSHOT"
        },
        {
          "implementationType": "CPU_CONTAINER",
          "requiredResourceUnit": 1,
          "computationRange": [
            1,
            1
          ],
          "memoryRange": [
            100,
            1000
          ],
          "storageRange": [
            5,
            50
          ],
          "bandwidthRange": [
            100,
            1000
          ],
          "acceleratorRange": [
            0,
            0
          ],
          "toscaid": "cloudlightning.nodes.SimpleRayTracingEngine:0.1.0-SNAPSHOT"
        }
      ]
    },
    {
      "serviceElementId": "RayTracingUI",
      "implementations": [
        {
          "implementationType": "CPU_CONTAINER",
          "requiredResourceUnit": 1,
          "computationRange": [
            1,
            1
          ],
          "memoryRange": [
            100,
            1000
          ],
          "storageRange": [
            5,
            50
          ],
          "bandwidthRange": [
            100,
            1000
          ],
          "acceleratorRange": [
            0,
            0
          ],
          "toscaid": "cloudlightning.nodes.RayTracingWebservice:0.1.0-SNAPSHOT"
        }
      ]
    }
  ]
}